module quizz-app-mvc

go 1.17

require (
	github.com/andybalholm/brotli v1.0.2 // indirect
	github.com/cosmtrek/air v1.27.3 // indirect
	github.com/creack/pty v1.1.15 // indirect
	github.com/fatih/color v1.12.0 // indirect
	github.com/fsnotify/fsnotify v1.5.1 // indirect
	github.com/gofiber/fiber/v2 v2.18.0 // indirect
	github.com/imdario/mergo v0.3.12 // indirect
	github.com/klauspost/compress v1.13.4 // indirect
	github.com/lib/pq v1.10.3 // indirect
	github.com/mattn/go-colorable v0.1.8 // indirect
	github.com/mattn/go-isatty v0.0.13 // indirect
	github.com/pelletier/go-toml v1.9.3 // indirect
	github.com/valyala/bytebufferpool v1.0.0 // indirect
	github.com/valyala/fasthttp v1.29.0 // indirect
	github.com/valyala/tcplisten v1.0.0 // indirect
	golang.org/x/sys v0.0.0-20210630005230-0f9fa26af87c // indirect
)
